2023-08-09 13:19:25.238 [info] Log level: Info
2023-08-09 13:19:25.238 [info] Validating found git in: "git"
2023-08-09 13:19:25.238 [info] Using git "2.34.1" from "git"
2023-08-09 13:19:25.238 [info] > git rev-parse --show-toplevel [94ms]
2023-08-09 13:19:25.238 [info] > git rev-parse --git-dir --git-common-dir [12ms]
2023-08-09 13:19:25.238 [info] Open repository: /home/ayush
2023-08-09 13:19:25.318 [info] > git rev-parse --show-toplevel [97ms]
2023-08-09 13:19:25.341 [info] > git rev-parse --git-dir --git-common-dir [15ms]
2023-08-09 13:19:25.349 [info] Open repository: /home/ayush/Python_HardWay
2023-08-09 13:19:25.359 [info] > git config --get commit.template [120ms]
2023-08-09 13:19:25.375 [info] No remotes found in the git config file.
2023-08-09 13:19:25.393 [info] > git rev-parse --show-toplevel [36ms]
2023-08-09 13:19:25.421 [info] > git rev-parse --show-toplevel [15ms]
2023-08-09 13:19:25.436 [info] > git config --get commit.template [49ms]
2023-08-09 13:19:25.437 [info] > git for-each-ref --format=%(refname)%00%(upstream:short)%00%(objectname)%00%(upstream:track)%00%(upstream:remotename)%00%(upstream:remoteref) refs/heads/master refs/remotes/master [64ms]
2023-08-09 13:19:25.460 [info] > git rev-parse --show-toplevel [25ms]
2023-08-09 13:19:25.486 [info] > git rev-parse --show-toplevel [15ms]
2023-08-09 13:19:25.494 [info] > git for-each-ref --format=%(refname)%00%(upstream:short)%00%(objectname)%00%(upstream:track)%00%(upstream:remotename)%00%(upstream:remoteref) refs/heads/main refs/remotes/main [13ms]
2023-08-09 13:19:25.505 [info] > git rev-parse --git-dir --git-common-dir [12ms]
2023-08-09 13:19:25.518 [info] Open repository: /home/ayush/.oh-my-zsh
2023-08-09 13:19:25.539 [info] > git status -z -uall [36ms]
2023-08-09 13:19:25.540 [info] > git rev-parse --show-toplevel [12ms]
2023-08-09 13:19:25.599 [info] > git rev-parse --show-toplevel [49ms]
2023-08-09 13:19:25.607 [info] > git config --get commit.template [70ms]
2023-08-09 13:19:25.637 [info] > git rev-parse --show-toplevel [29ms]
2023-08-09 13:19:25.657 [info] > git rev-parse --git-dir --git-common-dir [11ms]
2023-08-09 13:19:25.669 [info] Open repository: /home/ayush/calculator
2023-08-09 13:19:25.700 [info] > git config --get commit.template [70ms]
2023-08-09 13:19:25.836 [info] > git rev-parse --show-toplevel [136ms]
2023-08-09 13:19:25.842 [info] > git for-each-ref --format=%(refname)%00%(upstream:short)%00%(objectname)%00%(upstream:track)%00%(upstream:remotename)%00%(upstream:remoteref) refs/heads/master refs/remotes/master [186ms]
2023-08-09 13:19:25.876 [info] > git rev-parse --git-dir --git-common-dir [35ms]
2023-08-09 13:19:25.890 [info] Open repository: /home/ayush/linux
2023-08-09 13:19:25.904 [info] > git config --get commit.template [86ms]
2023-08-09 13:19:25.905 [info] > git for-each-ref --format=%(refname)%00%(upstream:short)%00%(objectname)%00%(upstream:track)%00%(upstream:remotename)%00%(upstream:remoteref) refs/heads/main refs/remotes/main [105ms]
2023-08-09 13:19:25.927 [info] > git status -z -uall [14ms]
2023-08-09 13:19:25.927 [info] > git rev-parse --show-toplevel [26ms]
2023-08-09 13:19:25.941 [info] > git config --get commit.template [19ms]
2023-08-09 13:19:25.952 [info] > git status -z -uall [500ms] (cancelled)
2023-08-09 13:19:25.952 [info] > git for-each-ref --format=%(refname)%00%(upstream:short)%00%(objectname)%00%(upstream:track)%00%(upstream:remotename)%00%(upstream:remoteref) refs/heads/main refs/remotes/main [14ms]
2023-08-09 13:19:25.976 [info] > git status -z -uall [14ms]
2023-08-09 13:19:25.993 [info] > git for-each-ref --format=%(refname)%00%(upstream:short)%00%(objectname)%00%(upstream:track)%00%(upstream:remotename)%00%(upstream:remoteref) refs/heads/main refs/remotes/main [23ms]
2023-08-09 13:19:26.005 [info] > git config --get commit.template [11ms]
2023-08-09 13:19:26.037 [info] > git status -z -uall [34ms]
2023-08-09 13:19:26.037 [info] > git for-each-ref --format=%(refname)%00%(upstream:short)%00%(objectname)%00%(upstream:track)%00%(upstream:remotename)%00%(upstream:remoteref) refs/heads/main refs/remotes/main [23ms]
2023-08-09 13:19:26.099 [info] > git status -z -uall [48ms]
2023-08-09 13:19:26.107 [info] > git config --get commit.template [11ms]
2023-08-09 13:19:26.119 [info] > git for-each-ref --format=%(refname)%00%(upstream:short)%00%(objectname)%00%(upstream:track)%00%(upstream:remotename)%00%(upstream:remoteref) refs/heads/main refs/remotes/main [2ms]
2023-08-09 13:19:26.129 [info] > git status -z -uall [3ms]
2023-08-09 13:19:26.269 [info] > git status -z -uall [420ms]
2023-08-09 13:19:26.282 [info] > git config --get commit.template [1ms]
2023-08-09 13:19:26.291 [info] > git for-each-ref --format=%(refname)%00%(upstream:short)%00%(objectname)%00%(upstream:track)%00%(upstream:remotename)%00%(upstream:remoteref) refs/heads/master refs/remotes/master [2ms]
2023-08-09 13:19:26.336 [info] > git status -z -uall [36ms]
2023-08-09 13:19:26.459 [info] > git check-ignore -v -z --stdin [25ms]
2023-08-09 13:19:26.462 [info] > git check-ignore -v -z --stdin [23ms]
2023-08-09 13:19:26.464 [info] > git check-ignore -v -z --stdin [19ms]
2023-08-09 13:19:26.464 [info] > git check-ignore -v -z --stdin [12ms]
2023-08-09 13:19:26.465 [info] > git check-ignore -v -z --stdin [9ms]
2023-08-09 13:19:26.530 [info] > git show --textconv :Exercise/ex44c.py [8ms]
2023-08-09 13:19:26.532 [info] > git ls-files --stage -- /home/ayush/Python_HardWay/Exercise/ex44c.py [3ms]
2023-08-09 13:19:51.455 [info] > git config --get commit.template [17ms]
2023-08-09 13:19:51.472 [info] No remotes found in the git config file.
2023-08-09 13:19:51.473 [info] > git for-each-ref --format=%(refname)%00%(upstream:short)%00%(objectname)%00%(upstream:track)%00%(upstream:remotename)%00%(upstream:remoteref) refs/heads/master refs/remotes/master [2ms]
2023-08-09 13:19:52.912 [info] > git status -z -uall [1427ms] (cancelled)
