2023-08-04 13:00:07.723 [info] Log level: Info
2023-08-04 13:00:07.723 [info] Validating found git in: "git"
2023-08-04 13:00:07.723 [info] Using git "2.34.1" from "git"
2023-08-04 13:00:07.723 [info] > git rev-parse --show-toplevel [145ms]
2023-08-04 13:00:07.723 [info] fatal: not a git repository (or any of the parent directories): .git
2023-08-04 13:00:07.723 [info] > git rev-parse --show-toplevel [95ms]
2023-08-04 13:00:07.723 [info] > git rev-parse --git-dir --git-common-dir [23ms]
2023-08-04 13:00:07.723 [info] Open repository: /home/ayush/Python_HardWay
2023-08-04 13:00:07.723 [info] > git rev-parse --show-toplevel [16ms]
2023-08-04 13:00:07.723 [info] fatal: not a git repository (or any of the parent directories): .git
2023-08-04 13:00:07.726 [info] > git rev-parse --show-toplevel [3ms]
2023-08-04 13:00:07.726 [info] fatal: not a git repository (or any of the parent directories): .git
2023-08-04 13:00:07.737 [info] > git config --get commit.template [31ms]
2023-08-04 13:00:07.841 [info] > git rev-parse --show-toplevel [105ms]
2023-08-04 13:00:07.841 [info] fatal: not a git repository (or any of the parent directories): .git
2023-08-04 13:00:07.867 [info] > git rev-parse --show-toplevel [18ms]
2023-08-04 13:00:07.880 [info] > git rev-parse --git-dir --git-common-dir [6ms]
2023-08-04 13:00:07.887 [info] Open repository: /home/ayush/.oh-my-zsh
2023-08-04 13:00:07.896 [info] > git for-each-ref --format=%(refname)%00%(upstream:short)%00%(objectname)%00%(upstream:track)%00%(upstream:remotename)%00%(upstream:remoteref) refs/heads/main refs/remotes/main [30ms]
2023-08-04 13:00:07.927 [info] > git status -z -uall [20ms]
2023-08-04 13:00:07.928 [info] > git rev-parse --show-toplevel [33ms]
2023-08-04 13:00:07.928 [info] fatal: not a git repository (or any of the parent directories): .git
2023-08-04 13:00:07.950 [info] > git config --get commit.template [30ms]
2023-08-04 13:00:07.987 [info] > git rev-parse --show-toplevel [49ms]
2023-08-04 13:00:07.987 [info] fatal: not a git repository (or any of the parent directories): .git
2023-08-04 13:00:08.017 [info] > git config --get commit.template [40ms]
2023-08-04 13:00:08.019 [info] > git rev-parse --show-toplevel [23ms]
2023-08-04 13:00:08.050 [info] > git rev-parse --git-dir --git-common-dir [21ms]
2023-08-04 13:00:08.062 [info] Open repository: /home/ayush/calculator
2023-08-04 13:00:08.072 [info] > git for-each-ref --format=%(refname)%00%(upstream:short)%00%(objectname)%00%(upstream:track)%00%(upstream:remotename)%00%(upstream:remoteref) refs/heads/master refs/remotes/master [66ms]
2023-08-04 13:00:08.174 [info] > git rev-parse --show-toplevel [103ms]
2023-08-04 13:00:08.183 [info] > git for-each-ref --format=%(refname)%00%(upstream:short)%00%(objectname)%00%(upstream:track)%00%(upstream:remotename)%00%(upstream:remoteref) refs/heads/main refs/remotes/main [137ms]
2023-08-04 13:00:08.213 [info] > git status -z -uall [19ms]
2023-08-04 13:00:08.219 [info] > git rev-parse --git-dir --git-common-dir [37ms]
2023-08-04 13:00:08.227 [info] Open repository: /home/ayush/linux
2023-08-04 13:00:08.236 [info] > git config --get commit.template [81ms]
2023-08-04 13:00:08.254 [info] > git rev-parse --show-toplevel [18ms]
2023-08-04 13:00:08.254 [info] fatal: not a git repository (or any of the parent directories): .git
2023-08-04 13:00:08.273 [info] > git config --get commit.template [23ms]
2023-08-04 13:00:08.288 [info] > git for-each-ref --format=%(refname)%00%(upstream:short)%00%(objectname)%00%(upstream:track)%00%(upstream:remotename)%00%(upstream:remoteref) refs/heads/main refs/remotes/main [16ms]
2023-08-04 13:00:08.325 [info] > git status -z -uall [27ms]
2023-08-04 13:00:08.326 [info] > git for-each-ref --format=%(refname)%00%(upstream:short)%00%(objectname)%00%(upstream:track)%00%(upstream:remotename)%00%(upstream:remoteref) refs/heads/main refs/remotes/main [39ms]
2023-08-04 13:00:08.354 [info] > git status -z -uall [19ms]
2023-08-04 13:00:08.390 [info] > git config --get commit.template [2ms]
2023-08-04 13:00:08.390 [info] > git config --get commit.template [12ms]
2023-08-04 13:00:08.417 [info] > git for-each-ref --format=%(refname)%00%(upstream:short)%00%(objectname)%00%(upstream:track)%00%(upstream:remotename)%00%(upstream:remoteref) refs/heads/main refs/remotes/main [16ms]
2023-08-04 13:00:08.476 [info] > git status -z -uall [6ms]
2023-08-04 13:00:08.476 [info] > git for-each-ref --format=%(refname)%00%(upstream:short)%00%(objectname)%00%(upstream:track)%00%(upstream:remotename)%00%(upstream:remoteref) refs/heads/main refs/remotes/main [61ms]
2023-08-04 13:00:08.524 [info] > git status -z -uall [39ms]
2023-08-04 13:00:08.575 [info] > git status -z -uall [491ms]
2023-08-04 13:00:08.606 [info] > git config --get commit.template [4ms]
2023-08-04 13:00:08.619 [info] > git for-each-ref --format=%(refname)%00%(upstream:short)%00%(objectname)%00%(upstream:track)%00%(upstream:remotename)%00%(upstream:remoteref) refs/heads/master refs/remotes/master [3ms]
2023-08-04 13:00:08.680 [info] > git show --textconv :Exercise/ex35.py [16ms]
2023-08-04 13:00:08.684 [info] > git ls-files --stage -- /home/ayush/Python_HardWay/Exercise/ex35.py [6ms]
2023-08-04 13:00:08.700 [info] > git status -z -uall [70ms]
2023-08-04 13:00:08.797 [info] > git check-ignore -v -z --stdin [32ms]
2023-08-04 13:00:08.799 [info] > git check-ignore -v -z --stdin [26ms]
2023-08-04 13:00:08.799 [info] > git check-ignore -v -z --stdin [16ms]
2023-08-04 13:00:08.801 [info] > git check-ignore -v -z --stdin [8ms]
2023-08-04 13:18:56.317 [info] > git check-ignore -v -z --stdin [1ms]
2023-08-04 13:18:56.467 [info] > git config --get commit.template [3ms]
2023-08-04 13:18:56.484 [info] > git for-each-ref --format=%(refname)%00%(upstream:short)%00%(objectname)%00%(upstream:track)%00%(upstream:remotename)%00%(upstream:remoteref) refs/heads/main refs/remotes/main [1ms]
2023-08-04 13:18:56.492 [info] > git status -z -uall [1ms]
2023-08-04 13:18:59.250 [info] > git show --textconv :Exercise/ex41.py [6ms]
2023-08-04 13:18:59.251 [info] > git ls-files --stage -- /home/ayush/Python_HardWay/Exercise/ex41.py [2ms]
2023-08-04 13:22:35.058 [info] > git show --textconv :Exercise/ex_21-40.txt [6ms]
2023-08-04 13:22:35.059 [info] > git ls-files --stage -- /home/ayush/Python_HardWay/Exercise/ex_21-40.txt [2ms]
